<?xml version="1.0" encoding="UTF-8"?>
<CustomTab xmlns="http://soap.sforce.com/2006/04/metadata">
    <description>Created by Lightning App Builder</description>
    <flexiPage>Field_Sales_App</flexiPage>
    <label>Field Sales App</label>
    <motif>Custom81: Musical Note</motif>
</CustomTab>
